:020000001200EC
:0410000019EF08F0EC
:08100800EA6A050EE96EEF50E3
:101010000EE00F0E016E006A002EFED7012EFBD7E8
:101020008F0E006E002EFED70000EF2EF2D729EFB4
:1010300008F0F86AD09EEA6AE96AC150C00B0F094D
:10104000C16E070EB46EB16A94908B70190E056E66
:06105000DBD7FAD7030014
:020000040030CA
:0E00000022CE3F1E0005A1000FC00FE00F40F2
:00000001FF
;PIC18F4550
;CRC=A4DE  CREATED="17-feb-13 13:24"
